// Jest Snapshot v1, https://goo.gl/fbAQLP

exports[`it renders 1`] = `
<Component
  width={
    Array [
      1,
      1,
      0.5,
    ]
  }
>
  <SetlistMenuContainer
    onSaveSetlist={[Function]}
    setlist={
      Object {
        "_id": "1",
        "name": "Mock Setlist Name",
        "songs": Array [
          Object {
            "_id": "1",
            "album": "Mock Song Album",
            "artist": Object {
              "_id": "1",
              "image": "images\\\\mockArtistImage.jpg",
              "info": "Mock artist information",
              "name": "Mock Artist Name",
              "thumbnail": "thumbnails\\\\mockArtistThumbnail.jpg",
            },
            "name": "Mock Song Name",
            "stringtunings": Array [
              "E",
              "A",
              "D",
              "G",
              "B",
              "E",
            ],
            "techniques": Array [
              "Tech1",
              "Tech2",
            ],
          },
          Object {
            "_id": "2",
            "album": "Mock Song Album",
            "artist": Object {
              "_id": "1",
              "image": "images\\\\mockArtistImage.jpg",
              "info": "Mock artist information",
              "name": "Mock Artist Name",
              "thumbnail": "thumbnails\\\\mockArtistThumbnail.jpg",
            },
            "name": "Mock Song Name",
            "stringtunings": Array [
              "E",
              "A",
              "D",
              "G",
              "B",
              "E",
            ],
            "techniques": Array [
              "Tech1",
              "Tech2",
            ],
          },
          Object {
            "_id": "3",
            "album": "Mock Song Album",
            "artist": Object {
              "_id": "1",
              "image": "images\\\\mockArtistImage.jpg",
              "info": "Mock artist information",
              "name": "Mock Artist Name",
              "thumbnail": "thumbnails\\\\mockArtistThumbnail.jpg",
            },
            "name": "Mock Song Name",
            "stringtunings": Array [
              "E",
              "A",
              "D",
              "G",
              "B",
              "E",
            ],
            "techniques": Array [
              "Tech1",
              "Tech2",
            ],
          },
        ],
      }
    }
    setlistHasChanged={false}
    showTuningInstructions={[Function]}
    sortByArtist={[Function]}
    sortByEfficiency={[Function]}
    sortByTuning={[Function]}
  />
  <sortableList
    axis="y"
    disableFlipMove={false}
    distance={0}
    getContainer={[Function]}
    getHelperDimensions={[Function]}
    getItemContent={[Function]}
    hideSortableGhost={true}
    itemKey="_id"
    items={
      Array [
        Object {
          "_id": "1",
          "album": "Mock Song Album",
          "artist": Object {
            "_id": "1",
            "image": "images\\\\mockArtistImage.jpg",
            "info": "Mock artist information",
            "name": "Mock Artist Name",
            "thumbnail": "thumbnails\\\\mockArtistThumbnail.jpg",
          },
          "name": "Mock Song Name",
          "stringtunings": Array [
            "E",
            "A",
            "D",
            "G",
            "B",
            "E",
          ],
          "techniques": Array [
            "Tech1",
            "Tech2",
          ],
        },
        Object {
          "_id": "2",
          "album": "Mock Song Album",
          "artist": Object {
            "_id": "1",
            "image": "images\\\\mockArtistImage.jpg",
            "info": "Mock artist information",
            "name": "Mock Artist Name",
            "thumbnail": "thumbnails\\\\mockArtistThumbnail.jpg",
          },
          "name": "Mock Song Name",
          "stringtunings": Array [
            "E",
            "A",
            "D",
            "G",
            "B",
            "E",
          ],
          "techniques": Array [
            "Tech1",
            "Tech2",
          ],
        },
        Object {
          "_id": "3",
          "album": "Mock Song Album",
          "artist": Object {
            "_id": "1",
            "image": "images\\\\mockArtistImage.jpg",
            "info": "Mock artist information",
            "name": "Mock Artist Name",
            "thumbnail": "thumbnails\\\\mockArtistThumbnail.jpg",
          },
          "name": "Mock Song Name",
          "stringtunings": Array [
            "E",
            "A",
            "D",
            "G",
            "B",
            "E",
          ],
          "techniques": Array [
            "Tech1",
            "Tech2",
          ],
        },
      ]
    }
    lockOffset="50%"
    lockToContainerEdges={false}
    onSortEnd={[Function]}
    onSortStart={[Function]}
    pressDelay={0}
    pressThreshold={5}
    shouldCancelStart={[Function]}
    transitionDuration={300}
    useDragHandle={true}
    useWindowAsScrollContainer={false}
  />
</Component>
`;
