// Jest Snapshot v1, https://goo.gl/fbAQLP

exports[`it renders 1`] = `
<CreateSetList
  closeModal={[Function]}
  editName={[Function]}
  hideChooseSong={[Function]}
  initialValues={
    Object {
      "name": "Mock Setlist Name",
    }
  }
  isAddingName={false}
  isChoosingSong={false}
  isMobile={false}
  onChangeName={[Function]}
  onSaveSetlist={[Function]}
  onSearch={[Function]}
  onSongClick={[Function]}
  setlist={
    Object {
      "_id": "1",
      "name": "Mock Setlist Name",
      "songs": Array [
        Object {
          "_id": "1",
          "album": "Mock Song Album",
          "artist": Object {
            "_id": "1",
            "image": "images\\\\mockArtistImage.jpg",
            "info": "Mock artist information",
            "name": "Mock Artist Name",
            "thumbnail": "thumbnails\\\\mockArtistThumbnail.jpg",
          },
          "name": "Mock Song Name",
          "stringtunings": Array [
            "E",
            "A",
            "D",
            "G",
            "B",
            "E",
          ],
          "techniques": Array [
            "Tech1",
            "Tech2",
          ],
        },
        Object {
          "_id": "2",
          "album": "Mock Song Album",
          "artist": Object {
            "_id": "1",
            "image": "images\\\\mockArtistImage.jpg",
            "info": "Mock artist information",
            "name": "Mock Artist Name",
            "thumbnail": "thumbnails\\\\mockArtistThumbnail.jpg",
          },
          "name": "Mock Song Name",
          "stringtunings": Array [
            "E",
            "A",
            "D",
            "G",
            "B",
            "E",
          ],
          "techniques": Array [
            "Tech1",
            "Tech2",
          ],
        },
        Object {
          "_id": "3",
          "album": "Mock Song Album",
          "artist": Object {
            "_id": "1",
            "image": "images\\\\mockArtistImage.jpg",
            "info": "Mock artist information",
            "name": "Mock Artist Name",
            "thumbnail": "thumbnails\\\\mockArtistThumbnail.jpg",
          },
          "name": "Mock Song Name",
          "stringtunings": Array [
            "E",
            "A",
            "D",
            "G",
            "B",
            "E",
          ],
          "techniques": Array [
            "Tech1",
            "Tech2",
          ],
        },
      ],
    }
  }
  setlistHasChanged={false}
  showChooseSong={[Function]}
  songs={
    Array [
      Object {
        "_id": "1",
        "album": "Mock Song Album",
        "artist": Object {
          "_id": "1",
          "image": "images\\\\mockArtistImage.jpg",
          "info": "Mock artist information",
          "name": "Mock Artist Name",
          "thumbnail": "thumbnails\\\\mockArtistThumbnail.jpg",
        },
        "name": "Mock Song Name",
        "stringtunings": Array [
          "E",
          "A",
          "D",
          "G",
          "B",
          "E",
        ],
        "techniques": Array [
          "Tech1",
          "Tech2",
        ],
      },
      Object {
        "_id": "2",
        "album": "Mock Song Album",
        "artist": Object {
          "_id": "1",
          "image": "images\\\\mockArtistImage.jpg",
          "info": "Mock artist information",
          "name": "Mock Artist Name",
          "thumbnail": "thumbnails\\\\mockArtistThumbnail.jpg",
        },
        "name": "Mock Song Name",
        "stringtunings": Array [
          "E",
          "A",
          "D",
          "G",
          "B",
          "E",
        ],
        "techniques": Array [
          "Tech1",
          "Tech2",
        ],
      },
      Object {
        "_id": "3",
        "album": "Mock Song Album",
        "artist": Object {
          "_id": "1",
          "image": "images\\\\mockArtistImage.jpg",
          "info": "Mock artist information",
          "name": "Mock Artist Name",
          "thumbnail": "thumbnails\\\\mockArtistThumbnail.jpg",
        },
        "name": "Mock Song Name",
        "stringtunings": Array [
          "E",
          "A",
          "D",
          "G",
          "B",
          "E",
        ],
        "techniques": Array [
          "Tech1",
          "Tech2",
        ],
      },
    ]
  }
/>
`;

exports[`it renders only the loader if setlist is being fetched 1`] = `
<Styled(Component)
  clickable={false}
  height={250}
  position="static"
>
  <LoaderWithOverlay
    fullscreen={false}
    isLoading={true}
    loaderSize="normal"
  />
</Styled(Component)>
`;

exports[`it renders only the loader if there is no selected setlist 1`] = `
<Styled(Component)
  clickable={false}
  height={250}
  position="static"
>
  <LoaderWithOverlay
    fullscreen={false}
    isLoading={false}
    loaderSize="normal"
  />
</Styled(Component)>
`;
