// Jest Snapshot v1, https://goo.gl/fbAQLP

exports[`it renders 1`] = `
<Styled(Component)
  column={true}
>
  <LoaderWithOverlay
    fullscreen={false}
    isLoading={false}
    loaderSize="normal"
  />
  <ReduxForm
    initialValues={
      Object {
        "email": "jon@gomm.com",
        "password": "jonnyboy",
      }
    }
    onSubmit={[Function]}
  />
  <Styled(Component)
    justify="center"
  >
    <Styled(Component)>
      or
    </Styled(Component)>
  </Styled(Component)>
  <Styled(Component)
    p={20}
  >
    <Styled(styled.button)
      id="login-button"
      noBorder={false}
      onClick={[Function]}
      size={null}
      width="100%"
    >
      Sign Up
    </Styled(styled.button)>
  </Styled(Component)>
</Styled(Component)>
`;

exports[`it renders login errors 1`] = `
<Styled(Component)
  column={true}
>
  <LoaderWithOverlay
    fullscreen={false}
    isLoading={false}
    loaderSize="normal"
  />
  <Styled(Component)
    justify="center"
  >
    <Styled(Component)>
      Login failed
    </Styled(Component)>
  </Styled(Component)>
  <ReduxForm
    initialValues={
      Object {
        "email": "jon@gomm.com",
        "password": "jonnyboy",
      }
    }
    onSubmit={[Function]}
  />
  <Styled(Component)
    justify="center"
  >
    <Styled(Component)>
      or
    </Styled(Component)>
  </Styled(Component)>
  <Styled(Component)
    p={20}
  >
    <Styled(styled.button)
      id="login-button"
      noBorder={false}
      onClick={[Function]}
      size={null}
      width="100%"
    >
      Sign Up
    </Styled(styled.button)>
  </Styled(Component)>
</Styled(Component)>
`;
