// Jest Snapshot v1, https://goo.gl/fbAQLP

exports[`it renders 1`] = `
<Styled(Component)>
  <Styled(styled.button)
    noBorder={false}
    onClick={[Function]}
    size={null}
    width={null}
  >
    <styled.span
      clickable={false}
      icon="login"
      size="normal"
    />
    <Styled(Component)>
      Login
    </Styled(Component)>
  </Styled(styled.button)>
  <Styled(Modal)
    contentLabel="Settings"
    isOpen={false}
    maxWidth={400}
    onRequestClose={[Function]}
  >
    <Login
      handleSubmit={[Function]}
      isLoggingIn={false}
      loginError="mockError"
      redirectToSignUp={[Function]}
    />
  </Styled(Modal)>
</Styled(Component)>
`;
