// Jest Snapshot v1, https://goo.gl/fbAQLP

exports[`it renders 1`] = `
<Styled(Component)
  height="auto"
  justify="center"
  maxHeight="none"
  maxWidth="none"
  minHeight="auto"
  minWidth="auto"
  noBackground={true}
  overflow="visible"
  p={
    Array [
      2,
      2,
      2,
      3,
    ]
  }
  pointer={false}
>
  <Route
    component={[Function]}
    exact={true}
    path="/"
  />
  <Route
    component={[Function]}
    exact={true}
    path="/search"
  />
  <Route
    component={[Function]}
    exact={true}
    path="/search/name"
  />
  <Route
    component={[Function]}
    path="/search/name/:searchValue"
  />
  <Route
    component={[Function]}
    exact={true}
    path="/search/tuning"
  />
  <Route
    component={[Function]}
    path="/search/tuning/:tuning/:similaritylevel"
  />
  <Route
    component={[Function]}
    exact={true}
    path="/addsong"
  />
  <Route
    component={[Function]}
    path="/addsong/:id"
  />
  <Route
    component={[Function]}
    path="/songs/:id"
  />
  <Route
    component={[Function]}
    exact={true}
    path="/setlists"
  />
  <Switch>
    <Route
      component={[Function]}
      exact={true}
      path="/setlists/new"
    />
    <Route
      component={[Function]}
      exact={true}
      path="/setlists/:id/tuninginstructions"
    />
    <Route
      component={[Function]}
      exact={true}
      path="/setlists/:id"
    />
  </Switch>
  <Route
    component={[Function]}
    path="/signup"
  />
</Styled(Component)>
`;
