// Jest Snapshot v1, https://goo.gl/fbAQLP

exports[`it renders 1`] = `
<Styled(Component)
  clickable={true}
  forContentItem={true}
  height="auto"
  maxHeight="none"
  maxWidth="none"
  mb={10}
  minHeight="auto"
  minWidth="auto"
  noBackground={false}
  overflow="visible"
  p={5}
  pointer={false}
>
  <Styled(Component)
    ml={5}
    mr={15}
  >
    <styled.div
      asCircle={true}
      clickable={false}
      height={50}
      url="thumbnails\\\\mockArtistThumbnail.jpg"
      width={50}
    />
  </Styled(Component)>
  <Styled(Component)
    column={true}
    justify="center"
  >
    <Styled(Component)>
      Mock Song Name
    </Styled(Component)>
    <Styled(Component)
      size="tiny"
    >
      Mock Artist Name
    </Styled(Component)>
  </Styled(Component)>
</Styled(Component)>
`;
