// Jest Snapshot v1, https://goo.gl/fbAQLP

exports[`it renders 1`] = `
<form
  onSubmit={[Function]}
>
  <RFFieldWithIcon
    icon="search"
    isTextArea={false}
    name="searchValue"
    type="text"
  />
</form>
`;
