// Jest Snapshot v1, https://goo.gl/fbAQLP

exports[`it renders 1`] = `
<Styled(Component)
  column={true}
  flex="1"
  height="auto"
  maxHeight="none"
  maxWidth="none"
  minHeight="auto"
  minWidth="auto"
  noBackground={true}
  overflow="visible"
  pointer={false}
  width={1}
>
  <Styled(Component)
    justify="center"
    mb={20}
  >
    <ReduxForm
      onSubmit={[Function]}
    />
  </Styled(Component)>
  <Connect(SongSearchResultsContainer) />
</Styled(Component)>
`;
