// Jest Snapshot v1, https://goo.gl/fbAQLP

exports[`it renders 1`] = `
<Styled(Component)
  className="sc-bxivhb hIqkPN"
  theme={
    Object {
      "backgrounds": Object {
        "container": "red",
        "container_alternate": "blue",
        "input": Object {
          "focus": "green",
          "hover": "green",
          "normal": "blue",
          "readonly": "green",
        },
        "mainOverlay": "transparent",
        "modalOverlay": "transparent",
        "pageBackground": "/assets/images/mock.jpg",
      },
      "borders": Object {
        "colors": Object {
          "dark": "hsl(60, 100%, 45%)",
          "light": "hsl(60, 100%, 55%)",
          "normal": "yellow",
          "shadow": "blue",
        },
        "radiuses": Object {
          "normal": "10px",
          "small": "5px",
        },
        "sizes": Object {
          "fine": "1.01px",
          "medium": "1.5px",
          "thick": "2px",
        },
      },
      "breakpoints": Array [
        0,
        37.5,
        56.25,
        75,
        100,
      ],
      "fonts": Object {
        "colors": Object {
          "error": "black",
          "heading": "blue",
          "input": Object {
            "focus": "red",
            "hover": "red",
            "normal": "red",
            "readonly": "red",
          },
          "subheading": "blue",
          "text": "blue",
          "title": "white",
        },
        "family": Object {
          "heading": "mockfont",
          "subheading": "mockfont",
          "text": "'mockfont'",
          "title": "mockfont",
        },
        "sizes": Object {
          "heading": "1.5rem",
          "subheading": "1.25rem",
          "text": Object {
            "huge": "1.5rem",
            "large": "1.25rem",
            "normal": "1rem",
            "small": "0.8rem",
            "tiny": "0.6rem",
          },
          "title": "3rem",
        },
      },
      "space": Array [
        0,
        8,
        16,
        24,
        32,
      ],
      "svg": Object {
        "guitarhead": Object {
          "fill": "pink",
          "stroke": "transparent",
        },
      },
      "themeid": 0,
      "themename": "mocktheme1",
      "webkit": Object {
        "autoFillBoxShadow": "0 0 0 1000px transparent inset !important",
      },
    }
  }
/>
`;
