// Jest Snapshot v1, https://goo.gl/fbAQLP

exports[`it renders 1`] = `
<Styled(Component)
  column={true}
  flex={1}
  height="auto"
  maxHeight="none"
  maxWidth={600}
  minHeight="auto"
  minWidth="auto"
  noBackground={false}
  overflow="visible"
  p={
    Array [
      3,
      3,
      4,
      4,
    ]
  }
  pointer={false}
  width={1}
>
  <Styled(Component) />
  <Styled(Modal)
    contentLabel=""
    isOpen={false}
    maxWidth={400}
    onRequestClose={[Function]}
  />
</Styled(Component)>
`;

exports[`it shows CreateSong and artist Media components if artist is selected 1`] = `
<Styled(Component)
  column={true}
  flex={1}
  height="auto"
  maxHeight="none"
  maxWidth={600}
  minHeight="auto"
  minWidth="auto"
  noBackground={false}
  overflow="visible"
  p={
    Array [
      3,
      3,
      4,
      4,
    ]
  }
  pointer={false}
  width={1}
>
  <Styled(Component)>
    <Styled(Component)
      align="center"
      flex="1"
      justify="center"
      mb={
        Array [
          1,
          1,
          2,
          3,
        ]
      }
    >
      <Media
        clickable={false}
        imageUrl="images\\\\mockArtistImage.jpg"
      >
        <Styled(Component)
          size="large"
        >
          Song By 
          Mock Artist Name
        </Styled(Component)>
      </Media>
    </Styled(Component)>
  </Styled(Component)>
  <CreateSong
    isPostingData={false}
    onSubmit={[Function]}
  />
  <Styled(Modal)
    contentLabel=""
    isOpen={false}
    maxWidth={400}
    onRequestClose={[Function]}
  />
</Styled(Component)>
`;

exports[`it shows modal with song details if new song was successfully created 1`] = `
<Styled(Component)
  column={true}
  flex={1}
  height="auto"
  maxHeight="none"
  maxWidth={600}
  minHeight="auto"
  minWidth="auto"
  noBackground={false}
  overflow="visible"
  p={
    Array [
      3,
      3,
      4,
      4,
    ]
  }
  pointer={false}
  width={1}
>
  <Styled(Component)>
    <Styled(Component)
      align="center"
      flex="1"
      justify="center"
      mb={
        Array [
          1,
          1,
          2,
          3,
        ]
      }
    >
      <Media
        clickable={false}
        imageUrl="images\\\\mockArtistImage.jpg"
      >
        <Styled(Component)
          size="large"
        >
          Song By 
          Mock Artist Name
        </Styled(Component)>
      </Media>
    </Styled(Component)>
  </Styled(Component)>
  <CreateSong
    isPostingData={false}
    onSubmit={[Function]}
  />
  <Styled(Modal)
    contentLabel=""
    isOpen={true}
    maxWidth={400}
    onRequestClose={[Function]}
  >
    <Styled(Component)
      align="center"
      column={true}
      p={
        Array [
          3,
          3,
          4,
          4,
        ]
      }
    >
      <Component
        my={5}
      >
        <Styled(Component)>
          Song created
        </Styled(Component)>
      </Component>
      <Component
        my={5}
      >
        <styled.div
          asCircle={true}
          clickable={false}
          height={80}
          url="thumbnails\\\\mockArtistThumbnail.jpg"
          width={80}
        />
      </Component>
      <Component
        my={5}
      >
        <Styled(Component)>
          Mock Song Name
           by 
          Mock Artist Name
        </Styled(Component)>
      </Component>
      <Styled(Component)
        my={5}
      >
        <Component
          px={5}
        >
          <Styled(styled.button)
            id="create-another"
            noBorder={false}
            onClick={[Function]}
            size={null}
            width="100%"
          >
            Create Another
          </Styled(styled.button)>
        </Component>
        <Component
          px={5}
        >
          <Styled(styled.button)
            id="view-song"
            noBorder={false}
            onClick={[Function]}
            size={null}
            width="100%"
          >
            View Song
          </Styled(styled.button)>
        </Component>
      </Styled(Component)>
    </Styled(Component)>
  </Styled(Modal)>
</Styled(Component)>
`;
