// Jest Snapshot v1, https://goo.gl/fbAQLP

exports[`it renders 1`] = `
<Styled(Component)
  align="center"
  height="auto"
  justify="center"
  maxHeight="none"
  maxWidth="none"
  minHeight="auto"
  minWidth="auto"
  noBackground={true}
  overflow="visible"
  pointer={false}
  wrap={true}
>
  <Styled(Styled(Component))
    column={true}
    flex="0 0 250px"
    m={20}
  >
    <Styled(Link)
      to="/search/name"
    >
      <Styled(Component)
        align="center"
        column={true}
        p={
          Array [
            3,
            3,
            4,
            4,
          ]
        }
      >
        <Styled(Component)
          flex={1}
          mb={20}
        >
          <SongSVG />
        </Styled(Component)>
        <Styled(Component)>
          Song Name
        </Styled(Component)>
      </Styled(Component)>
    </Styled(Link)>
  </Styled(Styled(Component))>
  <Styled(Styled(Component))
    column={true}
    flex="0 0 250px"
    m={20}
  >
    <Styled(Link)
      to="/search/tuning"
    >
      <Styled(Component)
        align="center"
        column={true}
        p={
          Array [
            3,
            3,
            4,
            4,
          ]
        }
      >
        <Styled(Component)
          flex={1}
          mb={20}
        >
          <TuningSVG />
        </Styled(Component)>
        <Styled(Component)>
          Song Tuning
        </Styled(Component)>
      </Styled(Component)>
    </Styled(Link)>
  </Styled(Styled(Component))>
</Styled(Component)>
`;
