// Jest Snapshot v1, https://goo.gl/fbAQLP

exports[`it renders 1`] = `
<Field
  component={[Function]}
  imageValue={
    Object {
      "preview": "",
    }
  }
  multiple={false}
  name="mockFieldName"
/>
`;
