// Jest Snapshot v1, https://goo.gl/fbAQLP

exports[`it renders 1`] = `
<Styled(Component)
  align="center"
  ml={10}
  my={10}
>
  <Styled(Component)
    align="center"
    clickable={true}
    flex={1}
    height="auto"
    onClick={[Function]}
    p={5}
    position="static"
  >
    <Component
      mr={
        Array [
          1,
        ]
      }
    >
      <styled.span
        clickable={false}
        icon="mockIconName"
        size="large"
      />
    </Component>
    <Styled(Component)>
      MockMenuItemName
    </Styled(Component)>
  </Styled(Component)>
</Styled(Component)>
`;
