// Jest Snapshot v1, https://goo.gl/fbAQLP

exports[`it displays new user data after user is created 1`] = `
<Styled(Component)
  flex="1"
  height="auto"
  justify="center"
  maxHeight="none"
  maxWidth={700}
  minHeight="auto"
  minWidth="auto"
  noBackground={false}
  overflow="visible"
  pointer={false}
>
  <LoaderWithOverlay
    fullscreen={false}
    isLoading={false}
    loaderSize="normal"
  />
  <Connect(Component)
    flex="1"
  >
    <Connect(ReduxForm)
      createAccountError={null}
      onSubmit={[Function]}
    />
  </Connect(Component)>
  <Connect(Component)
    p={
      Array [
        1,
        1,
        2,
        3,
      ]
    }
  >
    <Styled(Component)>
      Please sign out if you wish to make a new account
    </Styled(Component)>
  </Connect(Component)>
  <Styled(Modal)
    contentLabel=""
    isOpen={true}
    maxWidth={400}
    onRequestClose={[Function]}
  >
    <Styled(Component)
      align="center"
      column={true}
      p={20}
    >
      <Component
        my={5}
      >
        <Styled(Component)>
          Account created
        </Styled(Component)>
      </Component>
      <Component
        my={5}
      >
        <styled.div
          asCircle={true}
          clickable={false}
          height={80}
          url="thumbnails\\\\mockUserThumbnail.jpg"
          width={80}
        />
      </Component>
      <Component
        my={5}
      >
        <Styled(Component)>
          Welcome to Fingerstylist, 
          Mock User Name
          .
        </Styled(Component)>
      </Component>
      <Component
        my={5}
      >
        <Styled(styled.button)
          id="redirect-to-login"
          noBorder={false}
          onClick={[Function]}
          size={null}
          width="150px"
        >
          Login
        </Styled(styled.button)>
      </Component>
    </Styled(Component)>
  </Styled(Modal)>
</Styled(Component)>
`;

exports[`it renders 1`] = `
<Styled(Component)
  flex="1"
  height="auto"
  justify="center"
  maxHeight="none"
  maxWidth={700}
  minHeight="auto"
  minWidth="auto"
  noBackground={false}
  overflow="visible"
  pointer={false}
>
  <LoaderWithOverlay
    fullscreen={false}
    isLoading={false}
    loaderSize="normal"
  />
  <Connect(Component)
    flex="1"
  >
    <Connect(ReduxForm)
      createAccountError={null}
      onSubmit={[Function]}
    />
  </Connect(Component)>
  <Connect(Component)
    p={
      Array [
        1,
        1,
        2,
        3,
      ]
    }
  >
    <Styled(Component)>
      Please sign out if you wish to make a new account
    </Styled(Component)>
  </Connect(Component)>
  <Styled(Modal)
    contentLabel=""
    isOpen={false}
    maxWidth={400}
    onRequestClose={[Function]}
  />
</Styled(Component)>
`;
