// Jest Snapshot v1, https://goo.gl/fbAQLP

exports[`it renders 1`] = `
<Styled(Component)
  column={true}
  height="auto"
  maxHeight="none"
  maxWidth="none"
  minHeight="auto"
  minWidth="auto"
  noBackground={false}
  overflow="visible"
  p={
    Array [
      3,
      3,
      4,
      4,
    ]
  }
  pointer={false}
>
  <Component
    mb={20}
  >
    <Styled(Component)>
      Tuning instructions for 
      mockSetlistName
    </Styled(Component)>
  </Component>
  <Styled(Component)
    column={true}
    mb={10}
  >
    <Styled(Component)
      align="center"
      mb={10}
    >
      <Styled(Component)
        align="center"
        forContentItem={true}
        height="auto"
        justify="center"
        maxHeight="none"
        maxWidth="none"
        minHeight="auto"
        minWidth="auto"
        noBackground={false}
        overflow="visible"
        pointer={false}
      >
        <Styled(Component)>
          1
        </Styled(Component)>
      </Styled(Component)>
      <Styled(Component)>
        FirstSong
         to 
        SecondSong
      </Styled(Component)>
    </Styled(Component)>
    <Component
      mb={5}
    >
      <Styled(Component)>
        Mock tuning instructions
      </Styled(Component)>
    </Component>
  </Styled(Component)>
</Styled(Component)>
`;
