// Jest Snapshot v1, https://goo.gl/fbAQLP

exports[`it renders 1`] = `
<Styled(Component)
  column={true}
  flex="1"
  height="auto"
  maxHeight="none"
  maxWidth="none"
  minHeight={50}
  minWidth="auto"
  noBackground={true}
  overflow="visible"
  pointer={false}
  width={1}
>
  <LoaderWithOverlay
    fullscreen={true}
    isLoading={false}
    loaderSize="normal"
  />
  <Styled(Component)
    column={true}
    flex="1"
    justify="center"
  >
    <Component
      flex={1}
      width={1}
    >
      <List
        disableFlipMove={true}
        displayAsGrid={true}
        getItemContent={[Function]}
        itemBreakPoints={
          Array [
            1,
            1,
            0.5,
            0.3333333333333333,
            0.25,
            0.2,
          ]
        }
        itemKey="_id"
        items={Array []}
        onItemClick={[Function]}
        selectedItem={null}
        sortable={false}
      />
    </Component>
  </Styled(Component)>
</Styled(Component)>
`;
