// Jest Snapshot v1, https://goo.gl/fbAQLP

exports[`it renders 1`] = `
<Styled(Component)
  forContentItem={true}
  height="auto"
  maxHeight="none"
  maxWidth="none"
  mb={10}
  minHeight="auto"
  minWidth="auto"
  noBackground={false}
  onClick={[Function]}
  overflow="visible"
  p={5}
  pointer={true}
>
  <Styled(Component)
    ml={5}
    mr={15}
  >
    <styled.div
      asCircle={true}
      clickable={false}
      height={50}
      url="thumbnails\\\\mockArtistThumbnail.jpg"
      width={50}
    />
  </Styled(Component)>
  <Styled(Component)
    align="center"
  >
    <Styled(Component)>
      Mock Song Name
    </Styled(Component)>
  </Styled(Component)>
  <ContextMenu
    arrowHeight={0}
    arrowOffset={60}
    asRow={true}
    closeContextMenu={[Function]}
    isOpen={false}
    isPositionedAbove={true}
    isPositionedRight={false}
    offsetX={0}
    offsetY={0}
    rounded={true}
    width="100%"
  >
    <Styled(Component)
      align="center"
      clickable={true}
      flex="1"
      height={60}
      justify="center"
      menuItemClicked={[Function]}
      p={
        Array [
          2,
        ]
      }
      position="static"
    >
      <Component
        mr={
          Array [
            1,
          ]
        }
      >
        <styled.span
          clickable={false}
          icon="song"
          size="large"
        />
      </Component>
      <Styled(Component)>
        View
      </Styled(Component)>
    </Styled(Component)>
    <Styled(Component)
      align="center"
      clickable={true}
      flex="1"
      height={60}
      justify="center"
      menuItemClicked={[Function]}
      p={
        Array [
          2,
        ]
      }
      position="static"
    >
      <Component
        mr={
          Array [
            1,
          ]
        }
      >
        <styled.span
          clickable={false}
          icon="remove"
          size="large"
        />
      </Component>
      <Styled(Component)>
        Remove
      </Styled(Component)>
    </Styled(Component)>
  </ContextMenu>
</Styled(Component)>
`;
