// Jest Snapshot v1, https://goo.gl/fbAQLP

exports[`it generates theme from variables 1`] = `
Object {
  "backgrounds": Object {
    "container": "blue",
    "container_alternate": "red",
    "input": Object {
      "focus": "brown",
      "hover": "brown",
      "normal": "red",
      "readonly": "brown",
    },
    "mainOverlay": "transparent",
    "modalOverlay": undefined,
    "pageBackground": "/assets/images/mock.jpg",
  },
  "borders": Object {
    "colors": Object {
      "dark": "hsla(0, 0%, 0%, 0)",
      "light": "hsla(0, 0%, 0%, 0)",
      "normal": "transparent",
      "shadow": "red",
    },
    "radiuses": Object {
      "normal": "10px",
      "small": "5px",
    },
    "sizes": Object {
      "fine": "1.01px",
      "medium": "1.5px",
      "thick": "2px",
    },
  },
  "fonts": Object {
    "colors": Object {
      "error": "green",
      "heading": "blue",
      "input": Object {
        "focus": "red",
        "hover": "red",
        "normal": "red",
        "readonly": "red",
      },
      "subheading": "blue",
      "text": "blue",
      "title": "pink",
    },
    "family": Object {
      "heading": "mockHeadingFontName",
      "subheading": "mockHeadingFontName",
      "text": "'mockTextFontName'",
      "title": "mockTitleFontName",
    },
    "sizes": Object {
      "heading": "1.5rem",
      "subheading": "1.25rem",
      "text": Object {
        "huge": "1.5rem",
        "large": "1.25rem",
        "normal": "1rem",
        "small": "0.8rem",
        "tiny": "0.6rem",
      },
      "title": "3rem",
    },
  },
  "svg": Object {
    "guitarhead": Object {
      "fill": "yellow",
      "stroke": "transparent",
    },
  },
  "themename": "Mock",
  "webkit": Object {
    "autoFillBoxShadow": "0 0 0 1000px transparent inset !important",
  },
}
`;
